\relax 
\bibstyle{splncs}
\citation{axelrod:model}
\citation{schelling:model}
\@writefile{toc}{\contentsline {title}{Cultural dissemination and segregation: the Axelrod-Schelling model}{1}}
\@writefile{toc}{\authcount {1}}
\@writefile{toc}{\contentsline {author}{Vito Vincenzo Covella\unskip {}}{1}}
\@writefile{toc}{\contentsline {section}{\numberline {1}Introduction}{1}}
\@input{previsions.aux}
\@input{experimentprotocol.aux}
\@input{conclusions.aux}
\@input{bibliography.aux}
