\contentsline {chapter}{Cultural dissemination and segregation: the Axelrod-Schelling model}{0}
\contentsline {title}{Cultural dissemination and segregation: the Axelrod-Schelling model}{1}
\authcount {1}
\contentsline {author}{Vito Vincenzo Covella\unskip {}}{1}
