\relax 
\citation{louvain:community}
\citation{axelrod:model}
\citation{schelling:model}
\citation{barabasi}
\citation{barabasi:albert}
\@writefile{toc}{\contentsline {section}{\numberline {2}Experiments}{4}}
\newlabel{sec:experiments}{{2}{4}}
\@writefile{toc}{\contentsline {subsection}{\numberline {2.1}Protocol and procedures for the experiments}{4}}
\newlabel{subsec:protocol}{{2.1}{4}}
\@writefile{toc}{\contentsline {subsection}{\numberline {2.2}Results and findings}{5}}
\newlabel{subsec:results}{{2.2}{5}}
\@writefile{toc}{\contentsline {subsubsection}{Spatially clustered network layout: }{5}}
\@writefile{lof}{\contentsline {figure}{\numberline {1}{\ignorespaces \textbf  {Bottom left}: starting population of a spatially clustered network with 400 nodes with average degree 6, $e=0.10$, $T=0.10$, $F=3$, $q=3$; the seed for this network is $-2037327187$, there are 27 cultures in this initial state. \textbf  {Bottom right}: final population at the equilibrium state, from 27 different cultural codes randomly spread over the population, the simulation reached an equilibrium with 2 culture, one of which prevails over the other. \textbf  {Top}: data collected during the simulation.}}{7}}
\newlabel{fig:img1}{{1}{7}}
\@writefile{lof}{\contentsline {figure}{\numberline {2}{\ignorespaces \textbf  {Bottom left}: starting population of a spatially clustered network with 400 nodes with average degree 6, $e=0.35$, $T=0.20$, $F=15$, $q=15$; the seed for this network is $-193415129$, there are 280 cultures in this initial state. \textbf  {Bottom right}: final population at the equilibrium state, from 280 different cultural codes randomly spread over the population, the simulation reached an equilibrium with 10 culture. \textbf  {Top}: data collected during the simulation.}}{8}}
\newlabel{fig:img2}{{2}{8}}
\@writefile{lof}{\contentsline {figure}{\numberline {3}{\ignorespaces \textbf  {Bottom left}: starting population of a spatially clustered network with 400 nodes with average degree 12, $e=0.35$, $T=0.20$, $F=15$, $q=15$; the seed for this network is $-1208982709$, there are 259 cultures in this initial state. \textbf  {Bottom right}: final population at the equilibrium state, from 259 different cultural cultures randoly spread over the population, the simulation reached an equilibrium with 4 culture; one of the cultures has almost spread all over the network. \textbf  {Top}: data collected during the simulation.}}{9}}
\newlabel{fig:img3}{{3}{9}}
\@writefile{lof}{\contentsline {figure}{\numberline {4}{\ignorespaces \textbf  {Top:} Louvain communities (left) and final cultures in the equilibrium state (right) of a network with 400 sites, average degree 6, $F=3$, $q=3$, $e=0.30$, $T=0.51$, white nodes are empty sites. The seed used to generate this simulation is $-1929089644$. In various zones (for example in the lower left corner of the pictures) it is visible how two different Louvain communities end up sharing the same culture. \textbf  {Bottom:} Louvain communities (left) and final cultures in the equilibrium state (right) of a network with 400 sites, average degree 12, $F=9$, $q=9$, $e=0.45$, $T=0.80$, white nodes are empty sites. The seed used to generate this simulation is $1924688830$.}}{10}}
\newlabel{fig:lwcomm}{{4}{10}}
\@writefile{toc}{\contentsline {subsubsection}{2D lattice: }{11}}
\@writefile{toc}{\contentsline {subsubsection}{Preferential attachment:}{11}}
\@writefile{lof}{\contentsline {figure}{\numberline {5}{\ignorespaces \textbf  {Top:} Final state and statistics on a spatially clustered network with 400 nodes, average degree 12, $e=0.45$, $T=0.55$, $F=15$, $q=15$, seed=1632081973. \textbf  {Middle:} Final state and statistics on a spatially clustered network with 400 nodes, average degree 12, $e=0.45$, $T=0.55$, $F=9$, $q=9$, seed=-1586706976. \textbf  {Bottom:} Final state and statistics on a spatially clustered network with 400 nodes, average degree 12, $e=0.45$, $T=0.50$, $F=3$, $q=3$, seed=1355387318.}}{12}}
\newlabel{fig:img4}{{5}{12}}
\@writefile{lof}{\contentsline {figure}{\numberline {6}{\ignorespaces Final states and data of 2D lattices of 400 nodes with different configurations. Notice the presence of cultural agglomerates separated from other cultures by empty sites and how many NetLogo's ticks are required in order to reach a stable configuration. \textbf  {Top:} $F=3$, $q=3$, $e=0.30$, $T=0.51$, seed=-761191495. \textbf  {Middle:} $F=3$, $q=3$, $e=0.30$, $T=0.30$, seed=1988017058. \textbf  {Bottom:} $F=15$, $q=15$, $e=0.35$, $T=0.55$, seed=1405094782.}}{13}}
\newlabel{fig:lattice}{{6}{13}}
\@writefile{lof}{\contentsline {figure}{\numberline {7}{\ignorespaces Louvain communities (bottom left), cultures in the final equilibrium state (bottom right) and data (top) of a preferential attachment network layout with 400 nodes. Configuration: $F=3$, $q=3$, $e=0.35$, $T=0.80$, seed=618376717.}}{14}}
\newlabel{fig:pref1}{{7}{14}}
\@writefile{toc}{\contentsline {subsubsection}{Unexpected behaviours and other interesting findings: }{14}}
\@writefile{lof}{\contentsline {figure}{\numberline {8}{\ignorespaces Color coding of the 9 cultural traits (from 0 to 8 going from top left to bottom right) of a preferential attachment network layout with 400 nodes and data collected (bottom right). Configuration: $F=9$, $q=9$, $e=0.35$, $T=0.51$, seed=-451809446. The final state here depicted is characterized by 60 different cultures (a value greater than the number of easily distinguishable color in NetLogo, which is the reason why here the strategy for coloring involves coloring each cultural trait).}}{15}}
\newlabel{fig:pref2}{{8}{15}}
\@writefile{lof}{\contentsline {figure}{\numberline {9}{\ignorespaces Plots of one of the experiments. Differences in appearance are caused by different scaling factors.}}{15}}
\newlabel{fig:plotcmp}{{9}{15}}
\@setckpt{experimentprotocol}{
\setcounter{page}{16}
\setcounter{equation}{0}
\setcounter{enumi}{9}
\setcounter{enumii}{0}
\setcounter{enumiii}{0}
\setcounter{enumiv}{0}
\setcounter{footnote}{0}
\setcounter{mpfootnote}{0}
\setcounter{part}{0}
\setcounter{section}{2}
\setcounter{subsection}{2}
\setcounter{subsubsection}{0}
\setcounter{paragraph}{0}
\setcounter{subparagraph}{0}
\setcounter{figure}{9}
\setcounter{table}{0}
\setcounter{chapter}{1}
\setcounter{@inst}{1}
\setcounter{@auth}{1}
\setcounter{auco}{1}
\setcounter{theorem}{0}
\setcounter{case}{0}
\setcounter{conjecture}{0}
\setcounter{corollary}{0}
\setcounter{definition}{0}
\setcounter{example}{0}
\setcounter{exercise}{0}
\setcounter{lemma}{0}
\setcounter{note}{0}
\setcounter{problem}{0}
\setcounter{property}{0}
\setcounter{proposition}{1}
\setcounter{question}{0}
\setcounter{solution}{0}
\setcounter{remark}{0}
\setcounter{float@type}{4}
}
