\relax 
\citation{louvain:community}
\@writefile{toc}{\contentsline {subsection}{\numberline {1.1}Previsions and expected behaviour}{3}}
\newlabel{subsec:previsions}{{1.1}{3}}
\newlabel{itm:prev1}{{1}{3}}
\newlabel{itm:prev2}{{2}{3}}
\newlabel{itm:prev3}{{3}{3}}
\newlabel{itm:prev4}{{4}{3}}
\newlabel{itm:prev5}{{5}{3}}
\newlabel{itm:prev6}{{6}{3}}
\newlabel{itm:prev7}{{7}{3}}
\newlabel{itm:prev8}{{8}{3}}
\newlabel{itm:prev9}{{9}{3}}
\@setckpt{previsions}{
\setcounter{page}{4}
\setcounter{equation}{0}
\setcounter{enumi}{9}
\setcounter{enumii}{0}
\setcounter{enumiii}{0}
\setcounter{enumiv}{0}
\setcounter{footnote}{0}
\setcounter{mpfootnote}{0}
\setcounter{part}{0}
\setcounter{section}{1}
\setcounter{subsection}{1}
\setcounter{subsubsection}{0}
\setcounter{paragraph}{0}
\setcounter{subparagraph}{0}
\setcounter{figure}{0}
\setcounter{table}{0}
\setcounter{chapter}{1}
\setcounter{@inst}{1}
\setcounter{@auth}{1}
\setcounter{auco}{1}
\setcounter{theorem}{0}
\setcounter{case}{0}
\setcounter{conjecture}{0}
\setcounter{corollary}{0}
\setcounter{definition}{0}
\setcounter{example}{0}
\setcounter{exercise}{0}
\setcounter{lemma}{0}
\setcounter{note}{0}
\setcounter{problem}{0}
\setcounter{property}{0}
\setcounter{proposition}{0}
\setcounter{question}{0}
\setcounter{solution}{0}
\setcounter{remark}{0}
\setcounter{float@type}{4}
}
